testbench.vcd
$date
	Tue Sep 02 00:34:55 2025
$end
$version
	Icarus Verilog
$end
$timescale
	1ns
$end
$scope module testbench $end
$var wire 9 ! DX_DDDlength [8:0] $end
$var wire 4 " DX_DDDlengthlimit [3:0] $end
$var wire 4 # DX_DDDlengthnoncopylimit [3:0] $end
$var wire 4 $ DX_execstate [3:0] $end
$var wire 16 % DX_quot [15:0] $end
$var wire 8 & RDX_MEMA [7:0] $end
$var wire 8 ' RDX_MEMB [7:0] $end
$var wire 1 ( RDX_babydonthurtme $end
$var wire 8 ) RDX_shiftSTORE [7:0] $end
$var wire 3 * RDX_state [2:0] $end
$var wire 24 + mult1 [23:0] $end
$var wire 24 , mult2 [23:0] $end
$var wire 1 - connect $end
$var wire 1 . clk $end
$var wire 1 / TXD_write $end
$var wire 1 0 TXD_OUTPUT $end
$var wire 1 1 RDX_infotime $end
$var wire 1 2 RDX_count $end
$var wire 8 3 RDX_InfoPulse [7:0] $end
$var wire 1 4 DX_fleshout $end
$var wire 16 5 DX_LOWEST [15:0] $end
$var wire 16 6 DX_HITOUT [15:0] $end
$var wire 16 7 DX_HIGHEST [15:0] $end
$var wire 9 8 DX_DDDlengthnoncopy [8:0] $end
$var reg 1 9 reset $end
$upscope $end
$enddefinitions $end
$comment Show the parameter values. $end
$dumpall
$end
#0
$dumpvars
19
b0xxxxxxxx 8
bx 7
bx 6
bx 5
x4
bx 3
x2
x1
10
0/
0.
1-
bx ,
bx +
bx *
bx )
x(
bx '
bx &
bx %
bx $
bx #
bx "
bx !
$end
#15
02
b0 )
01
b0 3
b0 '
b0 &
1(
b0 *
b0 %
b0 ,
b0 +
b0 7
b0 5
b0 6
b0 #
b0 "
b0 !
b0 8
b0 $
04
1.
#20
09
#25
0.
#35
02
1.
#40
0-
#45
0.
#55
b1 *
02
1.
#60
1-
#65
0.
#75
b10000000 )
12
1.
#80
0-
#85
0.
#95
b1000000 )
02
1.
#100
1-
#105
0.
#115
b10100000 )
12
1.
#120
0-
#125
0.
#135
b1010000 )
02
1.
#140
1-
#145
0.
#155
b10101000 )
12
1.
#160
0-
#165
0.
#175
b1010100 )
02
1.
#180
1-
#185
0.
#195
b10101010 )
12
1.
#200
0-
#205
0.
#215
b1010101 )
02
1.
#225
0.
#235
b10 *
b1010101 &
b101010 )
12
1.
#240
1-
#245
0.
#255
b10010101 )
02
1.
#260
0-
#265
0.
#275
b1001010 )
12
1.
#280
1-
#285
0.
#295
b10100101 )
02
1.
#300
0-
#305
0.
#315
b1010010 )
12
1.
#320
1-
#325
0.
#335
b10101001 )
02
1.
#340
0-
#345
0.
#355
b1010100 )
12
1.
#360
1-
#365
0.
#375
b10101010 )
02
1.
#380
0-
#385
0.
#395
b11 *
b10101010 '
b1010101 )
12
1.
#405
0.
#415
b101010 )
02
1.
#420
1-
#425
0.
#435
b10010101 )
12
1.
#440
0-
#445
0.
#455
b1001010 )
02
1.
#460
1-
#465
0.
#475
b10100101 )
12
1.
#480
0-
#485
0.
#495
b1010010 )
02
1.
#505
0.
#515
b101001 )
12
1.
#525
0.
#535
b10100 )
02
1.
#540
1-
#545
0.
#555
0(
b100 *
b10100 3
b101100 &
b0 '
b10001010 )
12
1.
#560
0-
#565
0.
#575
b1000101 )
11
02
1.
#585
0.
#595
b1 $
b1111 #
b1111 "
b101000 !
b10100 8
01
b100010 )
12
1.
#605
0.
#615
b10001 )
02
1.
#620
1-
#625
0.
#635
b10001000 )
12
1.
#640
0-
#645
0.
#655
b1000100 )
02
1.
#665
0.
#675
b100010 )
12
1.
#685
0.
#695
b10001 )
02
1.
#705
0.
#715
b10001 3
b1000 )
12
b101011 &
1.
#725
0.
#735
b100 )
11
02
1.
#745
0.
#755
b10 $
b101000011 +
b101000011 ,
01
b10 )
12
1.
#765
0.
#775
b1 )
02
1.
#785
0.
#795
b0 )
12
1.
#805
0.
#815
02
1.
#825
0.
#835
12
1.
#845
0.
#855
02
1.
#860
1-
#865
0.
#875
b0 3
b10000000 )
12
b101010 &
1.
#880
0-
#885
0.
#895
b1000000 )
11
02
1.
#905
0.
#915
b11 $
01
b100000 )
12
1.
#925
0.
#935
b10000 )
02
1.
#940
1-
#945
0.
#955
b10001000 )
12
1.
#960
0-
#965
0.
#975
b1000100 )
02
1.
#985
0.
#995
b100010 )
12
1.
#1005
0.
#1015
b10001 )
02
1.
#1020
1-
#1025
0.
#1035
b10001 3
b10001000 )
12
b101001 &
1.
#1045
0.
#1055
b11000100 )
11
02
1.
#1060
0-
#1065
0.
#1075
b100 $
01
b1100010 )
12
1.
#1085
0.
#1095
b110001 )
02
1.
#1100
1-
#1105
0.
#1115
b10011000 )
12
1.
#1125
0.
#1135
b11001100 )
02
1.
#1140
0-
#1145
0.
#1155
b1100110 )
12
1.
#1165
0.
#1175
b110011 )
02
1.
#1180
1-
#1185
0.
#1195
b110011 3
b10011001 )
12
b101000 &
1.
#1200
0-
#1205
0.
#1215
b1001100 )
11
02
1.
#1220
1-
#1225
0.
#1235
b101 $
01
b10100110 )
12
1.
#1245
0.
#1255
b11010011 )
02
1.
#1260
0-
#1265
0.
#1275
b1101001 )
12
1.
#1280
1-
#1285
0.
#1295
b10110100 )
02
1.
#1300
0-
#1305
0.
#1315
b1011010 )
12
1.
#1320
1-
#1325
0.
#1335
b10101101 )
02
1.
#1345
0.
#1355
b10101101 3
b11010110 )
12
b100111 &
1.
#1365
0.
#1375
b11101011 )
11
02
1.
#1380
0-
#1385
0.
#1395
b100111 !
01
b1110101 )
12
1.
#1400
1-
#1405
0.
#1415
b10111010 )
02
1.
#1425
0.
#1435
b11011101 )
12
1.
#1445
0.
#1455
b11101110 )
02
1.
#1465
0.
#1475
b11110111 )
12
1.
#1485
0.
#1495
b11111011 )
02
1.
#1500
0-
#1505
0.
#1515
b11111011 3
b1111101 )
12
b100110 &
1.
#1525
0.
#1535
b111110 )
11
02
1.
#1545
0.
#1555
b100110 !
01
b11111 )
12
1.
#1560
1-
#1565
0.
#1575
b10001111 )
02
1.
#1580
0-
#1585
0.
#1595
b1000111 )
12
1.
#1605
0.
#1615
b100011 )
02
1.
#1625
0.
#1635
b10001 )
12
1.
#1645
0.
#1655
b1000 )
02
1.
#1665
0.
#1675
b1000 3
b100 )
12
b100101 &
1.
#1685
0.
#1695
b10 )
11
02
1.
#1705
0.
#1715
b100101 !
01
b1 )
12
1.
#1725
0.
#1735
b0 )
02
1.
#1745
0.
#1755
12
1.
#1765
0.
#1775
02
1.
#1785
0.
#1795
12
1.
#1805
0.
#1815
02
1.
#1820
1-
#1825
0.
#1835
b0 3
b10000000 )
12
b100100 &
1.
#1845
0.
#1855
b11000000 )
11
02
1.
#1865
0.
#1875
b100100 !
01
b11100000 )
12
1.
#1880
0-
#1885
0.
#1895
b1110000 )
02
1.
#1905
0.
#1915
b111000 )
12
1.
#1925
0.
#1935
b11100 )
02
1.
#1945
0.
#1955
b1110 )
12
1.
#1965
0.
#1975
b111 )
02
1.
#1985
0.
#1995
b111 3
b11 )
12
b100011 &
1.
#2005
0.
#2015
b1 )
11
02
1.
#2025
0.
#2035
b100011 !
01
b0 )
12
1.
#2045
0.
#2055
02
1.
#2065
0.
#2075
12
1.
#2085
0.
#2095
02
1.
#2105
0.
#2115
12
1.
#2125
0.
#2135
02
1.
#2140
1-
#2145
0.
#2155
b0 3
b10000000 )
12
b100010 &
1.
#2165
0.
#2175
b11000000 )
11
02
1.
#2180
0-
#2185
0.
#2195
b100010 !
01
b1100000 )
12
1.
#2200
1-
#2205
0.
#2215
b10110000 )
02
1.
#2220
0-
#2225
0.
#2235
b1011000 )
12
1.
#2240
1-
#2245
0.
#2255
b10101100 )
02
1.
#2260
0-
#2265
0.
#2275
b1010110 )
12
1.
#2280
1-
#2285
0.
#2295
b10101011 )
02
1.
#2300
0-
#2305
0.
#2315
b10101011 3
b1010101 )
12
b100001 &
1.
#2325
0.
#2335
b101010 )
11
02
1.
#2345
0.
#2355
b100001 !
01
b10101 )
12
1.
#2365
0.
#2375
b1010 )
02
1.
#2385
0.
#2395
b101 )
12
1.
#2405
0.
#2415
b10 )
02
1.
#2425
0.
#2435
b1 )
12
1.
#2445
0.
#2455
b0 )
02
1.
#2465
0.
#2475
b0 3
12
b100000 &
1.
#2485
0.
#2495
11
02
1.
#2500
1-
#2505
0.
#2515
b100000 !
01
b10000000 )
12
1.
#2525
0.
#2535
b11000000 )
02
1.
#2545
0.
#2555
b11100000 )
12
1.
#2565
0.
#2575
b11110000 )
02
1.
#2580
0-
#2585
0.
#2595
b1111000 )
12
1.
#2600
1-
#2605
0.
#2615
b10111100 )
02
1.
#2620
0-
#2625
0.
#2635
b10111100 3
b1011110 )
12
b11111 &
1.
#2645
0.
#2655
b101111 )
11
02
1.
#2665
0.
#2675
b11111 !
01
b10111 )
12
1.
#2685
0.
#2695
b1011 )
02
1.
#2705
0.
#2715
b101 )
12
1.
#2720
1-
#2725
0.
#2735
b10000010 )
02
1.
#2740
0-
#2745
0.
#2755
b1000001 )
12
1.
#2760
1-
#2765
0.
#2775
b10100000 )
02
1.
#2780
0-
#2785
0.
#2795
b10100000 3
b1010000 )
12
b11110 &
1.
#2800
1-
#2805
0.
#2815
b10101000 )
11
02
1.
#2820
0-
#2825
0.
#2835
b11110 !
01
b1010100 )
12
1.
#2840
1-
#2845
0.
#2855
b10101010 )
02
1.
#2860
0-
#2865
0.
#2875
b1010101 )
12
1.
#2880
1-
#2885
0.
#2895
b10101010 )
02
1.
#2900
0-
#2905
0.
#2915
b1010101 )
12
1.
#2920
1-
#2925
0.
#2935
b10101010 )
02
1.
#2940
0-
#2945
0.
#2955
b10101010 3
b1010101 )
12
b11101 &
1.
#2960
1-
#2965
0.
#2975
b10101010 )
11
02
1.
#2980
0-
#2985
0.
#2995
b11101 !
01
b1010101 )
12
1.
#3000
1-
#3005
0.
#3015
b10101010 )
02
1.
#3020
0-
#3025
0.
#3035
b1010101 )
12
1.
#3040
1-
#3045
0.
#3055
b10101010 )
02
1.
#3060
0-
#3065
0.
#3075
b1010101 )
12
1.
#3080
1-
#3085
0.
#3095
b10101010 )
02
1.
#3100
0-
#3105
0.
#3115
b1010101 )
12
b11100 &
1.
#3125
0.
#3135
b101010 )
11
02
1.
#3140
1-
#3145
0.
#3155
b11100 !
01
b10010101 )
12
1.
#3165
0.
#3175
b11001010 )
02
1.
#3185
0.
#3195
b11100101 )
12
1.
#3205
0.
#3215
b11110010 )
02
1.
#3220
0-
#3225
0.
#3235
b1111001 )
12
1.
#3240
1-
#3245
0.
#3255
b10111100 )
02
1.
#3260
0-
#3265
0.
#3275
b10111100 3
b1011110 )
12
b11011 &
1.
#3280
1-
#3285
0.
#3295
b10101111 )
11
02
1.
#3300
0-
#3305
0.
#3315
b11011 !
01
b1010111 )
12
1.
#3320
1-
#3325
0.
#3335
b10101011 )
02
1.
#3340
0-
#3345
0.
#3355
b1010101 )
12
1.
#3365
0.
#3375
b101010 )
02
1.
#3385
0.
#3395
b10101 )
12
1.
#3405
0.
#3415
b1010 )
02
1.
#3425
0.
#3435
b1010 3
b101 )
12
b11010 &
1.
#3445
0.
#3455
b10 )
11
02
1.
#3465
0.
#3475
b11010 !
01
b1 )
12
1.
#3485
0.
#3495
b0 )
02
1.
#3505
0.
#3515
12
1.
#3525
0.
#3535
02
1.
#3545
0.
#3555
12
1.
#3565
0.
#3575
02
1.
#3580
1-
#3585
0.
#3595
b0 3
b10000000 )
12
b11001 &
1.
#3605
0.
#3615
b11000000 )
11
02
1.
#3620
0-
#3625
0.
#3635
b11001 !
01
b1100000 )
12
1.
#3645
0.
#3655
b110000 )
02
1.
#3665
0.
#3675
b11000 )
12
1.
#3685
0.
#3695
b1100 )
02
1.
#3705
0.
#3715
b110 )
12
1.
#3725
0.
#3735
b11 )
02
1.
#3740
1-
#3745
0.
#3755
b11 3
b10000001 )
12
b11000 &
1.
#3760
0-
#3765
0.
#3775
b1000000 )
11
02
1.
#3785
0.
#3795
b11000 !
01
b100000 )
12
1.
#3800
1-
#3805
0.
#3815
b10010000 )
02
1.
#3825
0.
#3835
b11001000 )
12
1.
#3840
0-
#3845
0.
#3855
b1100100 )
02
1.
#3865
0.
#3875
b110010 )
12
1.
#3880
1-
#3885
0.
#3895
b10011001 )
02
1.
#3900
0-
#3905
0.
#3915
b10011001 3
b1001100 )
12
b10111 &
1.
#3920
1-
#3925
0.
#3935
b10100110 )
11
02
1.
#3940
0-
#3945
0.
#3955
b10111 !
01
b1010011 )
12
1.
#3965
0.
#3975
b101001 )
02
1.
#3985
0.
#3995
b10100 )
12
1.
#4005
0.
#4015
b1010 )
02
1.
#4025
0.
#4035
b101 )
12
1.
#4045
0.
#4055
b10 )
02
1.
#4065
0.
#4075
b10 3
b1 )
12
b10110 &
1.
#4085
0.
#4095
b0 )
11
02
1.
#4105
0.
#4115
b10110 !
01
12
1.
#4125
0.
#4135
02
1.
#4140
1-
#4145
0.
#4155
b10000000 )
12
1.
#4160
0-
#4165
0.
#4175
b1000000 )
02
1.
#4185
0.
#4195
b100000 )
12
1.
#4205
0.
#4215
b10000 )
02
1.
#4220
1-
#4225
0.
#4235
b10000 3
b10001000 )
12
b10101 &
1.
#4245
0.
#4255
b11000100 )
11
02
1.
#4260
0-
#4265
0.
#4275
b10101 !
01
b1100010 )
12
1.
#4285
0.
#4295
b110001 )
02
1.
#4305
0.
#4315
b11000 )
12
1.
#4325
0.
#4335
b1100 )
02
1.
#4345
0.
#4355
b110 )
12
1.
#4365
0.
#4375
b11 )
02
1.
#4385
0.
#4395
b11 3
b1 )
12
b10100 &
1.
#4405
0.
#4415
b0 )
11
02
1.
#4420
1-
#4425
0.
#4435
b10100 !
01
b10000000 )
12
1.
#4440
0-
#4445
0.
#4455
b1000000 )
02
1.
#4460
1-
#4465
0.
#4475
b10100000 )
12
1.
#4485
0.
#4495
b11010000 )
02
1.
#4500
0-
#4505
0.
#4515
b1101000 )
12
1.
#4525
0.
#4535
b110100 )
02
1.
#4545
0.
#4555
b110100 3
b11010 )
12
b10011 &
1.
#4560
1-
#4565
0.
#4575
b10001101 )
11
02
1.
#4580
0-
#4585
0.
#4595
b10011 !
01
b1000110 )
12
1.
#4605
0.
#4615
b100011 )
02
1.
#4620
1-
#4625
0.
#4635
b10010001 )
12
1.
#4640
0-
#4645
0.
#4655
b1001000 )
02
1.
#4665
0.
#4675
b100100 )
12
1.
#4685
0.
#4695
b10010 )
02
1.
#4700
1-
#4705
0.
#4715
b10010 3
b10001001 )
12
b10010 &
1.
#4725
0.
#4735
b11000100 )
11
02
1.
#4740
0-
#4745
0.
#4755
b10010 !
01
b1100010 )
12
1.
#4765
0.
#4775
b110001 )
02
1.
#4785
0.
#4795
b11000 )
12
1.
#4800
1-
#4805
0.
#4815
b10001100 )
02
1.
#4820
0-
#4825
0.
#4835
b1000110 )
12
1.
#4845
0.
#4855
b100011 )
02
1.
#4860
1-
#4865
0.
#4875
b100011 3
b10010001 )
12
b10001 &
1.
#4880
0-
#4885
0.
#4895
b1001000 )
11
02
1.
#4905
0.
#4915
b10001 !
01
b100100 )
12
1.
#4925
0.
#4935
b10010 )
02
1.
#4940
1-
#4945
0.
#4955
b10001001 )
12
1.
#4960
0-
#4965
0.
#4975
b1000100 )
02
1.
#4985
0.
#4995
b100010 )
12
1.
#5005
0.
#5015
b10001 )
02
1.
#5020
1-
#5025
0.
#5035
b10001 3
b10001000 )
12
b10000 &
1.
#5040
0-
#5045
0.
#5055
b1000100 )
11
02
1.
#5060
1-
#5065
0.
#5075
b10000 !
01
b10100010 )
12
1.
#5085
0.
#5095
b11010001 )
02
1.
#5100
0-
#5105
0.
#5115
b1101000 )
12
1.
#5125
0.
#5135
b110100 )
02
1.
#5140
1-
#5145
0.
#5155
b10011010 )
12
1.
#5165
0.
#5175
b11001101 )
02
1.
#5185
0.
#5195
b11001101 3
b11100110 )
12
b1111 &
1.
#5205
0.
#5215
b11110011 )
11
02
1.
#5220
0-
#5225
0.
#5235
b1111 !
01
b1111001 )
12
1.
#5240
1-
#5245
0.
#5255
b10111100 )
02
1.
#5260
0-
#5265
0.
#5275
b1011110 )
12
1.
#5280
1-
#5285
0.
#5295
b10101111 )
02
1.
#5300
0-
#5305
0.
#5315
b1010111 )
12
1.
#5320
1-
#5325
0.
#5335
b10101011 )
02
1.
#5345
0.
#5355
b10101011 3
b11010101 )
12
b1110 &
1.
#5365
0.
#5375
b11101010 )
11
02
1.
#5380
0-
#5385
0.
#5395
b1110 !
01
b1110101 )
12
1.
#5400
1-
#5405
0.
#5415
b10111010 )
02
1.
#5420
0-
#5425
0.
#5435
b1011101 )
12
1.
#5440
1-
#5445
0.
#5455
b10101110 )
02
1.
#5460
0-
#5465
0.
#5475
b1010111 )
12
1.
#5480
1-
#5485
0.
#5495
b10101011 )
02
1.
#5505
0.
#5515
b11010101 )
12
b1101 &
1.
#5520
0-
#5525
0.
#5535
b1101010 )
11
02
1.
#5545
0.
#5555
b1101 !
01
b110101 )
12
1.
#5565
0.
#5575
b11010 )
02
1.
#5580
1-
#5585
0.
#5595
b10001101 )
12
1.
#5600
0-
#5605
0.
#5615
b1000110 )
02
1.
#5625
0.
#5635
b100011 )
12
1.
#5645
0.
#5655
b10001 )
02
1.
#5660
1-
#5665
0.
#5675
b10001 3
b10001000 )
12
b1100 &
1.
#5685
0.
#5695
b11000100 )
11
02
1.
#5700
0-
#5705
0.
#5715
b1100 !
01
b1100010 )
12
1.
#5720
1-
#5725
0.
#5735
b10110001 )
02
1.
#5740
0-
#5745
0.
#5755
b1011000 )
12
1.
#5760
1-
#5765
0.
#5775
b10101100 )
02
1.
#5780
0-
#5785
0.
#5795
b1010110 )
12
1.
#5800
1-
#5805
0.
#5815
b10101011 )
02
1.
#5825
0.
#5835
b10101011 3
b11010101 )
12
b1011 &
1.
#5845
0.
#5855
b11101010 )
11
02
1.
#5865
0.
#5875
b1011 !
01
b11110101 )
12
1.
#5885
0.
#5895
b11111010 )
02
1.
#5900
0-
#5905
0.
#5915
b1111101 )
12
1.
#5925
0.
#5935
b111110 )
02
1.
#5945
0.
#5955
b11111 )
12
1.
#5965
0.
#5975
b1111 )
02
1.
#5980
1-
#5985
0.
#5995
b1111 3
b10000111 )
12
b1010 &
1.
#6000
0-
#6005
0.
#6015
b1000011 )
11
02
1.
#6025
0.
#6035
b1010 !
01
b100001 )
12
1.
#6045
0.
#6055
b10000 )
02
1.
#6060
1-
#6065
0.
#6075
b10001000 )
12
1.
#6080
0-
#6085
0.
#6095
b1000100 )
02
1.
#6105
0.
#6115
b100010 )
12
1.
#6125
0.
#6135
b10001 )
02
1.
#6140
1-
#6145
0.
#6155
b10001 3
b10001000 )
12
b1001 &
1.
#6160
0-
#6165
0.
#6175
b1000100 )
11
02
1.
#6185
0.
#6195
b1001 !
01
b100010 )
12
1.
#6205
0.
#6215
b10001 )
02
1.
#6220
1-
#6225
0.
#6235
b10001000 )
12
1.
#6240
0-
#6245
0.
#6255
b1000100 )
02
1.
#6265
0.
#6275
b100010 )
12
1.
#6285
0.
#6295
b10001 )
02
1.
#6300
1-
#6305
0.
#6315
b10001000 )
12
b1000 &
1.
#6320
0-
#6325
0.
#6335
b1000100 )
11
02
1.
#6345
0.
#6355
b1000 !
01
b100010 )
12
1.
#6365
0.
#6375
b10001 )
02
1.
#6385
0.
#6395
b1000 )
12
1.
#6400
1-
#6405
0.
#6415
b10000100 )
02
1.
#6420
0-
#6425
0.
#6435
b1000010 )
12
1.
#6445
0.
#6455
b100001 )
02
1.
#6460
1-
#6465
0.
#6475
b100001 3
b10010000 )
12
b111 &
1.
#6480
0-
#6485
0.
#6495
b1001000 )
11
02
1.
#6505
0.
#6515
b111 !
01
b100100 )
12
1.
#6525
0.
#6535
b10010 )
02
1.
#6545
0.
#6555
b1001 )
12
1.
#6560
1-
#6565
0.
#6575
b10000100 )
02
1.
#6580
0-
#6585
0.
#6595
b1000010 )
12
1.
#6605
0.
#6615
b100001 )
02
1.
#6625
0.
#6635
b10000 )
12
b110 &
1.
#6645
0.
#6655
b1000 )
11
02
1.
#6665
0.
#6675
b110 !
01
b100 )
12
1.
#6685
0.
#6695
b10 )
02
1.
#6705
0.
#6715
b1 )
12
1.
#6725
0.
#6735
b0 )
02
1.
#6745
0.
#6755
12
1.
#6765
0.
#6775
02
1.
#6785
0.
#6795
b0 3
12
b101 &
1.
#6805
0.
#6815
11
02
1.
#6825
0.
#6835
b101 !
01
12
1.
#6845
0.
#6855
02
1.
#6865
0.
#6875
12
1.
#6880
1-
#6885
0.
#6895
b10000000 )
02
1.
#6900
0-
#6905
0.
#6915
b1000000 )
12
1.
#6925
0.
#6935
b100000 )
02
1.
#6945
0.
#6955
b100000 3
b10000 )
12
b100 &
1.
#6965
0.
#6975
b1000 )
11
02
1.
#6980
1-
#6985
0.
#6995
b100 !
01
b10000100 )
12
1.
#7000
0-
#7005
0.
#7015
b1000010 )
02
1.
#7020
1-
#7025
0.
#7035
b10100001 )
12
1.
#7045
0.
#7055
b11010000 )
02
1.
#7060
0-
#7065
0.
#7075
b1101000 )
12
1.
#7085
0.
#7095
b110100 )
02
1.
#7105
0.
#7115
b110100 3
b11010 )
12
b11 &
1.
#7120
1-
#7125
0.
#7135
b10001101 )
11
02
1.
#7140
0-
#7145
0.
#7155
b11 !
01
b1000110 )
12
1.
#7165
0.
#7175
b100011 )
02
1.
#7180
1-
#7185
0.
#7195
b10010001 )
12
1.
#7200
0-
#7205
0.
#7215
b1001000 )
02
1.
#7225
0.
#7235
b100100 )
12
1.
#7245
0.
#7255
b10010 )
02
1.
#7260
1-
#7265
0.
#7275
b10010 3
b10001001 )
12
b10 &
1.
#7280
0-
#7285
0.
#7295
b1000100 )
11
02
1.
#7300
1-
#7305
0.
#7315
b10 !
01
b10100010 )
12
1.
#7320
0-
#7325
0.
#7335
b1010001 )
02
1.
#7340
1-
#7345
0.
#7355
b10101000 )
12
1.
#7365
0.
#7375
b11010100 )
02
1.
#7385
0.
#7395
b11101010 )
12
1.
#7400
0-
#7405
0.
#7415
b1110101 )
02
1.
#7420
1-
#7425
0.
#7435
b1110101 3
b10111010 )
12
b1 &
1.
#7440
0-
#7445
0.
#7455
b1011101 )
11
02
1.
#7465
0.
#7475
b1 !
01
b101110 )
12
1.
#7485
0.
#7495
b10111 )
02
1.
#7500
1-
#7505
0.
#7515
b10001011 )
12
1.
#7520
0-
#7525
0.
#7535
b1000101 )
02
1.
#7545
0.
#7555
b100010 )
12
1.
#7565
0.
#7575
b10001 )
02
1.
#7580
1-
#7585
0.
#7595
b101 *
b10001 3
b10001000 )
12
b0 &
1.
#7605
0.
#7615
b11000100 )
b0 *
11
02
1.
#7625
0.
#7635
b111 $
b101000 !
01
b11100010 )
12
1.
#7645
0.
#7655
b10001 5
02
1.
#7665
0.
#7675
b11010001000011 +
b0 5
02
1.
#7685
0.
#7695
02
1.
#7705
0.
#7715
02
1.
#7725
0.
#7735
02
1.
#7745
0.
#7755
02
1.
#7765
0.
#7775
02
1.
#7785
0.
#7795
02
1.
#7805
0.
#7815
02
1.
#7825
0.
#7835
02
1.
#7845
0.
#7855
02
1.
#7865
0.
#7875
02
1.
#7885
0.
#7895
02
1.
#7905
0.
#7915
02
1.
#7925
0.
#7935
02
1.
#7945
0.
#7955
02
1.
#7965
0.
#7975
02
1.
#7985
0.
#7995
02
1.
#8005
0.
#8015
02
1.
#8025
0.
#8035
02
1.
#8045
0.
#8055
02
1.
#8065
0.
#8075
02
1.
#8085
0.
#8095
02
1.
#8105
0.
#8115
02
1.
#8125
0.
#8135
02
1.
#8145
0.
#8155
02
1.
#8165
0.
#8175
02
1.
#8185
0.
#8195
02
1.
#8205
0.
#8215
02
1.
#8225
0.
#8235
02
1.
#8245
0.
#8255
02
1.
#8265
0.
#8275
02
1.
#8285
0.
#8295
02
1.
#8305
0.
#8315
02
1.
#8325
0.
#8335
02
1.
#8345
0.
#8355
02
1.
#8365
0.
#8375
02
1.
#8385
0.
#8395
02
1.
#8405
0.
#8415
02
1.
#8425
0.
#8435
02
1.
#8445
0.
#8455
b1000 $
02
1.
#8465
0.
#8475
b10001 7
02
1.
#8485
0.
#8495
02
1.
#8505
0.
#8515
02
1.
#8525
0.
#8535
02
1.
#8545
0.
#8555
02
1.
#8565
0.
#8575
02
1.
#8585
0.
#8595
02
1.
#8605
0.
#8615
02
1.
#8625
0.
#8635
02
1.
#8645
0.
#8655
02
1.
#8665
0.
#8675
02
1.
#8685
0.
#8695
02
1.
#8705
0.
#8715
02
1.
#8725
0.
#8735
02
1.
#8745
0.
#8755
02
1.
#8765
0.
#8775
02
1.
#8785
0.
#8795
02
1.
#8805
0.
#8815
02
1.
#8825
0.
#8835
02
1.
#8845
0.
#8855
02
1.
#8865
0.
#8875
02
1.
#8885
0.
#8895
02
1.
#8905
0.
#8915
02
1.
#8925
0.
#8935
02
1.
#8945
0.
#8955
02
1.
#8965
0.
#8975
02
1.
#8985
0.
#8995
02
1.
#9005
0.
#9015
02
1.
#9025
0.
#9035
02
1.
#9045
0.
#9055
02
1.
#9065
0.
#9075
02
1.
#9085
0.
#9095
02
1.
#9105
0.
#9115
02
1.
#9125
0.
#9135
02
1.
#9145
0.
#9155
02
1.
#9165
0.
#9175
02
1.
#9185
0.
#9195
02
1.
#9205
0.
#9215
02
1.
#9225
0.
#9235
02
1.
#9245
0.
#9255
02
1.
#9265
0.
#9275
b1001 $
02
1.
#9285
0.
#9295
02
1.
#9305
0.
#9315
02
1.
#9325
0.
#9335
02
1.
#9345
0.
#9355
02
1.
#9365
0.
#9375
02
1.
#9385
0.
#9395
02
1.
#9405
0.
#9415
02
1.
#9425
0.
#9435
b1000000000 %
02
1.
#9445
0.
#9455
02
1.
#9465
0.
#9475
b1010000000 %
02
1.
#9485
0.
#9495
b1011000000 %
02
1.
#9505
0.
#9515
02
1.
#9525
0.
#9535
02
1.
#9545
0.
#9555
02
1.
#9565
0.
#9575
02
1.
#9585
0.
#9595
02
1.
#9605
0.
#9615
02
1.
#9625
0.
#9635
02
1.
#9645
0.
#9655
b1010 $
b10000 7
b1011000000 5
02
1.
#9665
0.
#9675
b1 6
02
1.
#9685
0.
#9695
b11 6
02
1.
#9705
0.
#9715
b111 6
02
1.
#9725
0.
#9735
b1111 6
02
1.
#9745
0.
#9755
b11111 6
02
1.
#9765
0.
#9775
b111111 6
02
1.
#9785
0.
#9795
b1111111 6
02
1.
#9805
0.
#9815
b11111111 6
02
1.
#9825
0.
#9835
b111111111 6
02
1.
#9845
0.
#9855
b1111111111 6
02
1.
#9865
0.
#9875
b11111111111 6
02
1.
#9885
0.
#9895
b111111111111 6
02
1.
#9905
0.
#9915
b1111111111111 6
02
1.
#9925
0.
#9935
b11111111111111 6
02
1.
#9945
0.
#9955
b111111111111111 6
02
1.
#9965
0.
#9975
b1111111111111111 6
b1011 $
02
1.
#9985
0.
#9995
14
02
b0 $
1.
#10005
0.
#10015
04
b0 6
b0 7
b101000011 +
b0 5
02
1.
#10025
0.
#10035
02
1.
#10045
0.
#10055
02
1.
#10065
0.
#10075
02
1.
#10085
0.
#10095
02
1.
#10105
0.
#10115
02
1.
#10125
0.
#10135
02
1.
#10145
0.
#10155
02
1.
#10165
0.
#10175
02
1.
#10185
0.
#10195
02
1.
#10205
0.
#10215
02
1.
#10225
0.
#10235
02
1.
#10245
0.
#10255
02
1.
#10265
0.
#10275
02
1.
#10285
0.
#10295
02
1.
#10305
0.
#10315
02
1.
#10325
0.
#10335
02
1.
#10345
0.
#10355
02
1.
#10365
0.
#10375
02
1.
#10385
0.
#10395
02
1.
#10405
0.
#10415
02
1.
#10425
0.
#10435
02
1.
#10445
0.
#10455
02
1.
#10465
0.
#10475
02
1.
#10485
0.
#10495
02
1.
#10505
0.
#10515
02
1.
#10525
0.
#10535
02
1.
#10545
0.
#10555
02
1.
#10565
0.
#10575
02
1.
#10585
0.
#10595
02
1.
#10605
0.
#10615
02
1.
#10625
0.
#10635
02
1.
#10645
0.
#10655
02
1.
#10665
0.
#10675
02
1.
#10685
0.
#10695
02
1.
#10705
0.
#10715
02
1.
#10725
0.
#10735
02
1.
#10745
0.
#10755
02
1.
#10765
0.
#10775
02
1.
#10785
0.
#10795
02
1.
#10805
0.
#10815
02
1.
#10825
0.
#10835
02
1.
#10845
0.
#10855
02
1.
#10865
0.
#10875
02
1.
#10885
0.
#10895
02
1.
#10905
0.
#10915
02
1.
#10925
0.
#10935
02
1.
#10945
0.
#10955
02
1.
#10965
0.
#10975
02
1.
#10985
0.
#10995
02
1.
#11005
0.
#11015
02
1.
#11025
0.
#11035
02
1.
#11045
0.
#11055
02
1.
#11065
0.
#11075
02
1.
#11085
0.
#11095
02
1.
#11105
0.
#11115
02
1.
#11125
0.
#11135
02
1.
#11145
0.
#11155
02
1.
#11165
0.
#11175
02
1.
#11185
0.
#11195
02
1.
#11205
0.
#11215
02
1.
#11225
0.
#11235
02
1.
#11245
0.
#11255
02
1.
#11265
0.
#11275
02
1.
#11285
0.
#11295
02
1.
#11305
0.
#11315
02
1.
#11325
0.
#11335
02
1.
#11345
0.
#11355
02
1.
#11365
0.
#11375
02
1.
#11385
0.
#11395
02
1.
#11405
0.
#11415
02
1.
#11425
0.
#11435
02
1.
#11445
0.
#11455
02
1.
#11465
0.
#11475
02
1.
#11485
0.
#11495
02
1.
#11505
0.
#11515
02
1.
#11525
0.
#11535
02
1.
#11545
0.
#11555
02
1.
#11565
0.
#11575
02
1.
#11585
0.
#11595
02
1.
#11605
0.
#11615
02
1.
#11625
0.
#11635
02
1.
#11645
0.
#11655
02
1.
#11665
0.
#11675
02
1.
#11685
0.
#11695
02
1.
#11705
0.
#11715
02
1.
#11725
0.
#11735
02
1.
#11745
0.
