testbench.vcd
$date
	Wed Aug 27 21:49:52 2025
$end
$version
	Icarus Verilog
$end
$timescale
	1ns
$end
$scope module testbench $end
$var wire 24 ! BIG [23:0] $end
$var wire 8 " MEMA [7:0] $end
$var wire 8 # MEMB [7:0] $end
$var wire 1 $ babydonthurtme $end
$var wire 3 % count [2:0] $end
$var wire 4 & execstate [3:0] $end
$var wire 8 ' shiftSTORE [7:0] $end
$var wire 3 ( state [2:0] $end
$var wire 16 ) quotient [15:0] $end
$var wire 1 * infotime $end
$var wire 1 + fleshout $end
$var wire 1 , divdone $end
$var wire 1 - connect $end
$var wire 1 . clk $end
$var wire 16 / LOWEST [15:0] $end
$var wire 8 0 InfoPulse [7:0] $end
$var wire 16 1 HITOUT [15:0] $end
$var wire 16 2 HIGHEST [15:0] $end
$var wire 8 3 DDDlength [7:0] $end
$var reg 1 4 flesh $end
$var reg 1 5 reset $end
$upscope $end
$enddefinitions $end
$comment Show the parameter values. $end
$dumpall
$end
#0
$dumpvars
15
04
bx 3
bx 2
bx 1
bx 0
bx /
0.
1-
x,
x+
x*
bx )
bx (
bx '
bx &
bx %
x$
bx #
bx "
bx !
$end
#15
b0 3
b0 '
b0 %
0*
b0 0
b0 #
b0 "
1$
b0 (
b0 2
b0 /
b0 1
b0 &
0+
b0 !
0,
b0 )
1.
#20
05
#25
0.
#35
b1010111010100010010001 !
b0 %
1.
#40
14
0-
#45
0.
#55
b1 (
b0 %
1.
#60
04
1-
#65
0.
#75
b1000000000000000 )
b11101010100010010001 !
b10000000 '
b1 %
1.
#80
0-
#85
0.
#95
b1000000 '
b1100000000000000 )
b10100010010001 !
b10 %
1.
#100
1-
#105
0.
#115
b10100000 '
b11 %
1.
#120
0-
#125
0.
#135
b1010000 '
b100 %
1.
#140
1-
#145
0.
#155
b10101000 '
b101 %
1.
#160
0-
#165
0.
#175
b1010100 '
b110 %
1.
#180
1-
#185
0.
#195
b10101010 '
b111 %
1.
#200
0-
#205
0.
#215
b1010101 '
b0 %
1.
#225
0.
#235
b1100000010000000 )
b101110010001 !
b10 (
b1010101 "
b101010 '
b1 %
1.
#240
1-
#245
0.
#255
b10010101 '
b10 %
1.
#260
0-
#265
0.
#275
b1100000010100000 )
b10001010001 !
b1001010 '
b11 %
1.
#280
1-
#285
0.
#295
b10100101 '
b1100000010110000 )
b10110001 !
b100 %
1.
#300
0-
#305
0.
#315
b1010010 '
b101 %
1.
#320
1-
#325
0.
#335
b10101001 '
b110 %
1.
#340
0-
#345
0.
#355
b1100000010110010 )
b111101 !
b1010100 '
b111 %
1.
#360
1-
#365
0.
#375
b10101010 '
b1100000010110011 )
b11 !
b0 %
1.
#380
0-
#385
0.
#395
1,
b11 (
b10101010 #
b1010101 '
b1 %
1.
#405
0.
#415
b101010 '
b1010111010100010010001 !
0,
b10 %
1.
#420
1-
#425
0.
#435
b10010101 '
b11 %
1.
#440
0-
#445
0.
#455
b1001010 '
b100 %
1.
#465
0.
#475
b100101 '
b101 %
1.
#485
0.
#495
b10010 '
b110 %
1.
#505
0.
#515
b1001 '
b111 %
1.
#525
0.
#535
b100 '
b0 %
1.
#540
1-
#545
0.
#555
0$
b100 (
b100 0
b1100 "
b0 #
b10000010 '
b1 %
1.
#565
0.
#575
b11000001 '
1*
b10 %
1.
#580
0-
#585
0.
#595
b1000 3
b1 &
0*
b1100000 '
b11 %
1.
#600
1-
#605
0.
#615
b10110000 '
b100 %
1.
#625
0.
#635
b11011000 '
b101 %
1.
#645
0.
#655
b11101100 '
b110 %
1.
#665
0.
#675
b11110110 '
b111 %
1.
#685
0.
#695
b11111011 '
b0 %
1.
#705
0.
#715
b11111011 0
b11111101 '
b1011 "
b1 %
1.
#720
0-
#725
0.
#735
b1111110 '
1*
b10 %
1.
#745
0.
#755
b10 &
0*
b111111 '
b11 %
1.
#765
0.
#775
b11111 '
b100 %
1.
#785
0.
#795
b1111 '
b101 %
1.
#800
1-
#805
0.
#815
b10000111 '
b110 %
1.
#820
0-
#825
0.
#835
b1000011 '
b111 %
1.
#840
1-
#845
0.
#855
b10100001 '
b0 %
1.
#860
0-
#865
0.
#875
b10100001 0
b1010000 '
b1010 "
b1 %
1.
#885
0.
#895
b101000 '
1*
b10 %
1.
#900
1-
#905
0.
#915
b11 &
0*
b10010100 '
b11 %
1.
#925
0.
#935
b11001010 '
b100 %
1.
#945
0.
#955
b11100101 '
b101 %
1.
#960
0-
#965
0.
#975
b1110010 '
b110 %
1.
#985
0.
#995
b111001 '
b111 %
1.
#1000
1-
#1005
0.
#1015
b10011100 '
b0 %
1.
#1025
0.
#1035
b10011100 0
b11001110 '
b1001 "
b1 %
1.
#1045
0.
#1055
b11100111 '
1*
b10 %
1.
#1065
0.
#1075
b100 &
0*
b11110011 '
b11 %
1.
#1085
0.
#1095
b11111001 '
b100 %
1.
#1105
0.
#1115
b11111100 '
b101 %
1.
#1125
0.
#1135
b11111110 '
b110 %
1.
#1145
0.
#1155
b11111111 '
b111 %
1.
#1165
0.
#1175
b0 %
1.
#1185
0.
#1195
b11111111 0
b1000 "
b1 %
1.
#1205
0.
#1215
1*
b10 %
1.
#1225
0.
#1235
b101 &
0*
b11 %
1.
#1245
0.
#1255
b100 %
1.
#1265
0.
#1275
b101 %
1.
#1285
0.
#1295
b110 %
1.
#1305
0.
#1315
b111 %
1.
#1325
0.
#1335
b0 %
1.
#1345
0.
#1355
b111 "
b1 %
1.
#1365
0.
#1375
1*
b10 %
1.
#1385
0.
#1395
b111 3
0*
b11 %
1.
#1405
0.
#1415
b100 %
1.
#1425
0.
#1435
b101 %
1.
#1445
0.
#1455
b110 %
1.
#1465
0.
#1475
b111 %
1.
#1485
0.
#1495
b0 %
1.
#1505
0.
#1515
b110 "
b1 %
1.
#1525
0.
#1535
1*
b10 %
1.
#1545
0.
#1555
b110 3
0*
b11 %
1.
#1565
0.
#1575
b100 %
1.
#1585
0.
#1595
b101 %
1.
#1605
0.
#1615
b110 %
1.
#1625
0.
#1635
b111 %
1.
#1645
0.
#1655
b0 %
1.
#1665
0.
#1675
b101 "
b1 %
1.
#1685
0.
#1695
1*
b10 %
1.
#1705
0.
#1715
b101 3
0*
b11 %
1.
#1725
0.
#1735
b100 %
1.
#1745
0.
#1755
b101 %
1.
#1765
0.
#1775
b110 %
1.
#1785
0.
#1795
b111 %
1.
#1805
0.
#1815
b0 %
1.
#1825
0.
#1835
b100 "
b1 %
1.
#1845
0.
#1855
1*
b10 %
1.
#1865
0.
#1875
b100 3
0*
b11 %
1.
#1885
0.
#1895
b100 %
1.
#1905
0.
#1915
b101 %
1.
#1925
0.
#1935
b110 %
1.
#1945
0.
#1955
b111 %
1.
#1965
0.
#1975
b0 %
1.
#1985
0.
#1995
b11 "
b1 %
1.
#2005
0.
#2015
1*
b10 %
1.
#2025
0.
#2035
b11 3
0*
b11 %
1.
#2045
0.
#2055
b100 %
1.
#2065
0.
#2075
b101 %
1.
#2085
0.
#2095
b110 %
1.
#2105
0.
#2115
b111 %
1.
#2125
0.
#2135
b0 %
1.
#2145
0.
#2155
b10 "
b1 %
1.
#2165
0.
#2175
1*
b10 %
1.
#2185
0.
#2195
b10 3
0*
b11 %
1.
#2205
0.
#2215
b100 %
1.
#2225
0.
#2235
b101 %
1.
#2245
0.
#2255
b110 %
1.
#2265
0.
#2275
b111 %
1.
#2285
0.
#2295
b0 %
1.
#2305
0.
#2315
b1 "
b1 %
1.
#2325
0.
#2335
1*
b10 %
1.
#2345
0.
#2355
b1 3
0*
b11 %
1.
#2365
0.
#2375
b100 %
1.
#2385
0.
#2395
b101 %
1.
#2405
0.
#2415
b110 %
1.
#2425
0.
#2435
b111 %
1.
#2445
0.
#2455
b0 %
1.
#2465
0.
#2475
b101 (
b0 "
b1 %
1.
#2485
0.
#2495
b0 (
1*
b10 %
1.
#2505
0.
#2515
b1000 3
b111 &
0*
b11 %
1.
#2525
0.
#2535
b11111111 /
b0 %
1.
#2545
0.
#2555
b0 /
b0 %
1.
#2565
0.
#2575
b0 %
1.
#2585
0.
#2595
b0 %
1.
#2605
0.
#2615
b0 %
1.
#2625
0.
#2635
b0 %
1.
#2645
0.
#2655
b0 %
1.
#2665
0.
#2675
b0 %
1.
#2685
0.
#2695
b1000 &
b0 %
1.
#2705
0.
#2715
b11111111 2
b0 %
1.
#2725
0.
#2735
b0 %
1.
#2745
0.
#2755
b0 %
1.
#2765
0.
#2775
b0 %
1.
#2785
0.
#2795
b0 %
1.
#2805
0.
#2815
b0 %
1.
#2825
0.
#2835
b0 %
1.
#2845
0.
#2855
b0 %
1.
#2865
0.
#2875
b1001 &
b0 %
1.
#2885
0.
#2895
b1 1
b0 %
1.
#2905
0.
#2915
b11 1
b0 %
1.
#2925
0.
#2935
b111 1
b0 %
1.
#2945
0.
#2955
b1111 1
b0 %
1.
#2965
0.
#2975
b11111 1
b1010000111111011 2
b1010001001011000 /
b1010 &
b0 %
1.
#2985
0.
#2995
1+
b0 &
b0 %
1.
#3005
0.
#3015
0+
b0 1
b0 2
b0 /
b0 %
1.
#3025
0.
#3035
b0 %
1.
#3045
0.
#3055
b0 %
1.
#3065
0.
#3075
b0 %
1.
#3085
0.
#3095
b0 %
1.
#3105
0.
#3115
b0 %
1.
#3125
0.
#3135
b0 %
1.
#3145
0.
#3155
b0 %
1.
#3165
0.
#3175
b0 %
1.
#3185
0.
#3195
b0 %
1.
#3205
0.
#3215
b0 %
1.
#3225
0.
#3235
b0 %
1.
#3245
0.
#3255
b0 %
1.
#3265
0.
#3275
b0 %
1.
#3285
0.
#3295
b0 %
1.
#3305
0.
#3315
b0 %
1.
#3325
0.
#3335
b0 %
1.
#3345
0.
#3355
b0 %
1.
#3365
0.
#3375
b0 %
1.
#3385
0.
#3395
b0 %
1.
#3405
0.
#3415
b0 %
1.
#3425
0.
#3435
b0 %
1.
#3445
0.
#3455
b0 %
1.
#3465
0.
#3475
b0 %
1.
#3485
0.
#3495
b0 %
1.
#3505
0.
#3515
b0 %
1.
#3525
0.
#3535
b0 %
1.
#3545
0.
#3555
b0 %
1.
#3565
0.
#3575
b0 %
1.
#3585
0.
#3595
b0 %
1.
#3605
0.
#3615
b0 %
1.
#3625
0.
#3635
b0 %
1.
#3645
0.
#3655
b0 %
1.
#3665
0.
#3675
b0 %
1.
#3685
0.
#3695
b0 %
1.
#3705
0.
#3715
b0 %
1.
#3725
0.
#3735
b0 %
1.
#3745
0.
#3755
b0 %
1.
#3765
0.
#3775
b0 %
1.
#3785
0.
#3795
b0 %
1.
#3805
0.
#3815
b0 %
1.
#3825
0.
#3835
b0 %
1.
#3845
0.
#3855
b0 %
1.
#3865
0.
#3875
b0 %
1.
#3885
0.
#3895
b0 %
1.
#3905
0.
#3915
b0 %
1.
#3925
0.
#3935
b0 %
1.
#3945
0.
#3955
b0 %
1.
#3965
0.
#3975
b0 %
1.
#3985
0.
#3995
b0 %
1.
#4005
0.
#4015
b0 %
1.
#4025
0.
#4035
b0 %
1.
#4045
0.
#4055
b0 %
1.
#4065
0.
#4075
b0 %
1.
#4085
0.
#4095
b0 %
1.
#4105
0.
#4115
b0 %
1.
#4125
0.
#4135
b0 %
1.
#4145
0.
#4155
b0 %
1.
#4165
0.
#4175
b0 %
1.
#4185
0.
#4195
b0 %
1.
#4205
0.
#4215
b0 %
1.
#4225
0.
#4235
b0 %
1.
#4245
0.
#4255
b0 %
1.
#4265
0.
#4275
b0 %
1.
#4285
0.
#4295
b0 %
1.
#4305
0.
#4315
b0 %
1.
#4325
0.
#4335
b0 %
1.
#4345
0.
#4355
b0 %
1.
#4365
0.
#4375
b0 %
1.
#4385
0.
#4395
b0 %
1.
#4405
0.
#4415
b0 %
1.
#4425
0.
#4435
b0 %
1.
#4445
0.
#4455
b0 %
1.
#4465
0.
#4475
b0 %
1.
#4485
0.
#4495
b0 %
1.
#4505
0.
#4515
b0 %
1.
#4525
0.
#4535
b0 %
1.
#4545
0.
#4555
b0 %
1.
#4565
0.
#4575
b0 %
1.
#4585
0.
#4595
b0 %
1.
#4605
0.
#4615
b0 %
1.
#4625
0.
#4635
b0 %
1.
#4645
0.
#4655
b0 %
1.
#4665
0.
#4675
b0 %
1.
#4685
0.
#4695
b0 %
1.
#4705
0.
#4715
b0 %
1.
#4725
0.
#4735
b0 %
1.
#4745
0.
#4755
b0 %
1.
#4765
0.
#4775
b0 %
1.
#4785
0.
#4795
b0 %
1.
#4805
0.
#4815
b0 %
1.
#4825
0.
#4835
b0 %
1.
#4845
0.
#4855
b0 %
1.
#4865
0.
#4875
b0 %
1.
#4885
0.
#4895
b0 %
1.
#4905
0.
#4915
b0 %
1.
#4925
0.
#4935
b0 %
1.
#4945
0.
#4955
b0 %
1.
#4965
0.
#4975
b0 %
1.
#4985
0.
#4995
b0 %
1.
#5005
0.
#5015
b0 %
1.
#5025
0.
#5035
b0 %
1.
#5045
0.
#5055
b0 %
1.
#5065
0.
#5075
b0 %
1.
#5085
0.
#5095
b0 %
1.
#5105
0.
#5115
b0 %
1.
#5125
0.
#5135
b0 %
1.
#5145
0.
#5155
b0 %
1.
#5165
0.
#5175
b0 %
1.
#5185
0.
#5195
b0 %
1.
#5205
0.
#5215
b0 %
1.
#5225
0.
#5235
b0 %
1.
#5245
0.
#5255
b0 %
1.
#5265
0.
#5275
b0 %
1.
#5285
0.
#5295
b0 %
1.
#5305
0.
#5315
b0 %
1.
#5325
0.
#5335
b0 %
1.
#5345
0.
#5355
b0 %
1.
#5365
0.
#5375
b0 %
1.
#5385
0.
#5395
b0 %
1.
#5405
0.
#5415
b0 %
1.
#5425
0.
#5435
b0 %
1.
#5445
0.
#5455
b0 %
1.
#5465
0.
#5475
b0 %
1.
#5485
0.
#5495
b0 %
1.
#5505
0.
#5515
b0 %
1.
#5525
0.
#5535
b0 %
1.
#5545
0.
#5555
b0 %
1.
#5565
0.
#5575
b0 %
1.
#5585
0.
#5595
b0 %
1.
#5605
0.
#5615
b0 %
1.
#5625
0.
#5635
b0 %
1.
#5645
0.
#5655
b0 %
1.
#5665
0.
#5675
b0 %
1.
#5685
0.
#5695
b0 %
1.
#5705
0.
#5715
b0 %
1.
#5725
0.
#5735
b0 %
1.
#5745
0.
#5755
b0 %
1.
#5765
0.
#5775
b0 %
1.
#5785
0.
#5795
b0 %
1.
#5805
0.
#5815
b0 %
1.
#5825
0.
#5835
b0 %
1.
#5845
0.
#5855
b0 %
1.
#5865
0.
#5875
b0 %
1.
#5885
0.
#5895
b0 %
1.
#5905
0.
#5915
b0 %
1.
#5925
0.
#5935
b0 %
1.
#5945
0.
#5955
b0 %
1.
#5965
0.
#5975
b0 %
1.
#5985
0.
#5995
b0 %
1.
#6005
0.
#6015
b0 %
1.
#6025
0.
#6035
b0 %
1.
#6045
0.
#6055
b0 %
1.
#6065
0.
#6075
b0 %
1.
#6085
0.
#6095
b0 %
1.
#6105
0.
#6115
b0 %
1.
#6125
0.
#6135
b0 %
1.
#6145
0.
#6155
b0 %
1.
#6165
0.
#6175
b0 %
1.
#6185
0.
#6195
b0 %
1.
#6205
0.
#6215
b0 %
1.
#6225
0.
#6235
b0 %
1.
#6245
0.
#6255
b0 %
1.
#6265
0.
#6275
b0 %
1.
#6285
0.
#6295
b0 %
1.
#6305
0.
#6315
b0 %
1.
#6325
0.
#6335
b0 %
1.
#6345
0.
#6355
b0 %
1.
#6365
0.
#6375
b0 %
1.
#6385
0.
#6395
b0 %
1.
#6405
0.
#6415
b0 %
1.
#6425
0.
#6435
b0 %
1.
#6445
0.
#6455
b0 %
1.
#6465
0.
#6475
b0 %
1.
#6485
0.
#6495
b0 %
1.
#6505
0.
#6515
b0 %
1.
#6525
0.
#6535
b0 %
1.
#6545
0.
#6555
b0 %
1.
#6565
0.
#6575
b0 %
1.
#6585
0.
#6595
b0 %
1.
#6605
0.
#6615
b0 %
1.
#6625
0.
#6635
b0 %
1.
#6645
0.
#6655
b0 %
1.
#6665
0.
#6675
b0 %
1.
#6685
0.
#6695
b0 %
1.
#6705
0.
#6715
b0 %
1.
#6725
0.
#6735
b0 %
1.
#6745
0.
#6755
b0 %
1.
#6765
0.
#6775
b0 %
1.
#6785
0.
#6795
b0 %
1.
#6805
0.
#6815
b0 %
1.
#6825
0.
#6835
b0 %
1.
#6845
0.
#6855
b0 %
1.
#6865
0.
#6875
b0 %
1.
#6885
0.
#6895
b0 %
1.
#6905
0.
#6915
b0 %
1.
#6925
0.
#6935
b0 %
1.
#6945
0.
#6955
b0 %
1.
#6965
0.
#6975
b0 %
1.
#6985
0.
#6995
b0 %
1.
#7005
0.
#7015
b0 %
1.
#7025
0.
#7035
b0 %
1.
#7045
0.
#7055
b0 %
1.
#7065
0.
#7075
b0 %
1.
#7085
0.
#7095
b0 %
1.
#7105
0.
#7115
b0 %
1.
#7125
0.
#7135
b0 %
1.
#7145
0.
#7155
b0 %
1.
#7165
0.
#7175
b0 %
1.
#7185
0.
#7195
b0 %
1.
#7205
0.
#7215
b0 %
1.
#7225
0.
#7235
b0 %
1.
#7245
0.
#7255
b0 %
1.
#7265
0.
#7275
b0 %
1.
#7285
0.
#7295
b0 %
1.
#7305
0.
#7315
b0 %
1.
#7325
0.
#7335
b0 %
1.
#7345
0.
#7355
b0 %
1.
#7365
0.
#7375
b0 %
1.
#7385
0.
#7395
b0 %
1.
#7405
0.
#7415
b0 %
1.
#7425
0.
#7435
b0 %
1.
#7445
0.
#7455
b0 %
1.
#7465
0.
#7475
b0 %
1.
#7485
0.
#7495
b0 %
1.
#7505
0.
#7515
b0 %
1.
#7525
0.
#7535
b0 %
1.
#7545
0.
#7555
b0 %
1.
#7565
0.
#7575
b0 %
1.
#7585
0.
#7595
b0 %
1.
#7605
0.
#7615
b0 %
1.
#7625
0.
#7635
b0 %
1.
#7645
0.
#7655
b0 %
1.
#7665
0.
#7675
b0 %
1.
#7685
0.
#7695
b0 %
1.
#7705
0.
#7715
b0 %
1.
#7725
0.
#7735
b0 %
1.
#7745
0.
#7755
b0 %
1.
#7765
0.
#7775
b0 %
1.
#7785
0.
#7795
b0 %
1.
#7805
0.
#7815
b0 %
1.
#7825
0.
#7835
b0 %
1.
#7845
0.
#7855
b0 %
1.
#7865
0.
#7875
b0 %
1.
#7885
0.
#7895
b0 %
1.
#7905
0.
#7915
b0 %
1.
#7925
0.
#7935
b0 %
1.
#7945
0.
#7955
b0 %
1.
#7965
0.
#7975
b0 %
1.
#7985
0.
#7995
b0 %
1.
#8005
0.
#8015
b0 %
1.
#8025
0.
#8035
b0 %
1.
#8045
0.
#8055
b0 %
1.
#8065
0.
#8075
b0 %
1.
#8085
0.
#8095
b0 %
1.
#8105
0.
#8115
b0 %
1.
#8125
0.
#8135
b0 %
1.
#8145
0.
#8155
b0 %
1.
#8165
0.
#8175
b0 %
1.
#8185
0.
#8195
b0 %
1.
#8205
0.
#8215
b0 %
1.
#8225
0.
#8235
b0 %
1.
#8245
0.
#8255
b0 %
1.
#8265
0.
#8275
b0 %
1.
#8285
0.
#8295
b0 %
1.
#8305
0.
#8315
b0 %
1.
#8325
0.
#8335
b0 %
1.
#8345
0.
#8355
b0 %
1.
#8365
0.
#8375
b0 %
1.
#8385
0.
#8395
b0 %
1.
#8405
0.
#8415
b0 %
1.
#8425
0.
#8435
b0 %
1.
#8445
0.
#8455
b0 %
1.
#8465
0.
#8475
b0 %
1.
#8485
0.
#8495
b0 %
1.
#8505
0.
#8515
b0 %
1.
#8525
0.
#8535
b0 %
1.
#8545
0.
#8555
b0 %
1.
#8565
0.
#8575
b0 %
1.
#8585
0.
#8595
b0 %
1.
#8605
0.
#8615
b0 %
1.
#8625
0.
#8635
b0 %
1.
#8645
0.
#8655
b0 %
1.
#8665
0.
#8675
b0 %
1.
#8685
0.
#8695
b0 %
1.
#8705
0.
#8715
b0 %
1.
#8725
0.
#8735
b0 %
1.
#8745
0.
#8755
b0 %
1.
#8765
0.
#8775
b0 %
1.
#8785
0.
#8795
b0 %
1.
#8805
0.
#8815
b0 %
1.
#8825
0.
#8835
b0 %
1.
#8845
0.
#8855
b0 %
1.
#8865
0.
#8875
b0 %
1.
#8885
0.
#8895
b0 %
1.
#8905
0.
#8915
b0 %
1.
#8925
0.
#8935
b0 %
1.
#8945
0.
#8955
b0 %
1.
#8965
0.
#8975
b0 %
1.
#8985
0.
#8995
b0 %
1.
#9005
0.
#9015
b0 %
1.
#9025
0.
#9035
b0 %
1.
#9045
0.
#9055
b0 %
1.
#9065
0.
#9075
b0 %
1.
#9085
0.
#9095
b0 %
1.
#9105
0.
#9115
b0 %
1.
#9125
0.
#9135
b0 %
1.
#9145
0.
#9155
b0 %
1.
#9165
0.
#9175
b0 %
1.
#9185
0.
#9195
b0 %
1.
#9205
0.
#9215
b0 %
1.
#9225
0.
#9235
b0 %
1.
#9245
0.
#9255
b0 %
1.
#9265
0.
#9275
b0 %
1.
#9285
0.
#9295
b0 %
1.
#9305
0.
#9315
b0 %
1.
#9325
0.
#9335
b0 %
1.
#9345
0.
#9355
b0 %
1.
#9365
0.
#9375
b0 %
1.
#9385
0.
#9395
b0 %
1.
#9405
0.
#9415
b0 %
1.
#9425
0.
#9435
b0 %
1.
#9445
0.
#9455
b0 %
1.
#9465
0.
#9475
b0 %
1.
#9485
0.
#9495
b0 %
1.
#9505
0.
#9515
b0 %
1.
#9525
0.
#9535
b0 %
1.
#9545
0.
#9555
b0 %
1.
#9565
0.
#9575
b0 %
1.
#9585
0.
#9595
b0 %
1.
#9605
0.
#9615
b0 %
1.
#9625
0.
#9635
b0 %
1.
#9645
0.
#9655
b0 %
1.
#9665
0.
#9675
b0 %
1.
#9685
0.
#9695
b0 %
1.
#9705
0.
#9715
b0 %
1.
#9725
0.
#9735
b0 %
1.
#9745
0.
#9755
b0 %
1.
#9765
0.
#9775
b0 %
1.
#9785
0.
#9795
b0 %
1.
#9805
0.
#9815
b0 %
1.
#9825
0.
#9835
b0 %
1.
#9845
0.
#9855
b0 %
1.
#9865
0.
#9875
b0 %
1.
#9885
0.
#9895
b0 %
1.
#9905
0.
#9915
b0 %
1.
#9925
0.
#9935
b0 %
1.
#9945
0.
#9955
b0 %
1.
#9965
0.
#9975
b0 %
1.
#9985
0.
#9995
b0 %
1.
#10005
0.
#10015
b0 %
1.
#10025
0.
#10035
b0 %
1.
#10045
0.
#10055
b0 %
1.
